29 Visualising and Analysing Text Data with R: tidytext methods – R for Visual Analytics
…
29.6.3 Text Data Processing

In this code chunk below, unnest_tokens() of tidytext package is used to split the dataset into tokens, while stop_words() is used to remove stop-words.

usenet_words <- cleaned_text %>%
  unnest_tokens(word, text) %>%
  filter(str_detect(word, "[a-z']$"),
         !word %in% stop_words$word)

Now that we’ve removed the headers, signatures, and formatting, we can start exploring common words. For starters, we could find the most common words in the entire dataset, or within particular newsgroups.

usenet_words %>%
  count(word, sort = TRUE)

# A tibble: 5,542 × 2
   word           n
   <chr>      <int>
 1 people        57
 2 time          50
 3 jesus         47
 4 god           44
 5 message       40
 6 br            27
 7 bible         23
 8 drive         23
 9 homosexual    23
10 read          22
# ℹ 5,532 more rows
…
29.7.7 Bigram

In this code chunk below, a bigram data frame is created by using unnest_tokens() of tidytext.

bigrams <- cleaned_text %>%
  unnest_tokens(bigram, 
                text, 
                token = "ngrams", 
                n = 2)

bigrams

# A tibble: 28,827 × 3
   newsgroup   id    bigram    
   <chr>       <chr> <chr>     
 1 alt.atheism 54256 <NA>      
 2 alt.atheism 54256 <NA>      
 3 alt.atheism 54256 as i      
 4 alt.atheism 54256 i don't   
 5 alt.atheism 54256 don't know
 6 alt.atheism 54256 know this 
 7 alt.atheism 54256 this book 
 8 alt.atheism 54256 book i    
 9 alt.atheism 54256 i will    
10 alt.atheism 54256 will use  
# ℹ 28,817 more rows

29.7.8 Counting bigrams

The code chunk is used to count and sort the bigram data frame ascendingly.

bigrams_count <- bigrams %>%
  filter(bigram != 'NA') %>%
  count(bigram, sort = TRUE)

bigrams_count

# A tibble: 19,888 × 2
   bigram       n
   <chr>    <int>
 1 of the     169
 2 in the     113
 3 to the      74
 4 to be       59
 5 for the     52
 6 i have      48
 7 that the    47
 8 if you      40
 9 on the      39
10 it is       38
# ℹ 19,878 more rows
…
The code chunk below is used to seperate the bigram into two words.

bigrams_separated <- bigrams %>%
  filter(bigram != 'NA') %>%
  separate(bigram, c("word1", "word2"), 
           sep = " ")

bigrams_filtered <- bigrams_separated %>%
  filter(!word1 %in% stop_words$word) %>%
  filter(!word2 %in% stop_words$word)

bigrams_filtered

# A tibble: 4,607 × 4
   newsgroup   id    word1        word2        
   <chr>       <chr> <chr>        <chr>        
 1 alt.atheism 54256 defines      god          
 2 alt.atheism 54256 term         preclues     
 3 alt.atheism 54256 science      ideas        
 4 alt.atheism 54256 ideas        drawn        
 5 alt.atheism 54256 supernatural precludes    
 6 alt.atheism 54256 scientific   assertions   
 7 alt.atheism 54256 religious    dogma        
 8 alt.atheism 54256 religion     involves     
 9 alt.atheism 54256 involves     circumventing
10 alt.atheism 54256 gain         absolute     
# ℹ 4,597 more rows
…
